<?xml version="1.0" encoding="UTF-8" standalone="no"?>
<svg
   xmlns:dc="http://purl.org/dc/elements/1.1/"
   xmlns:cc="http://creativecommons.org/ns#"
   xmlns:rdf="http://www.w3.org/1999/02/22-rdf-syntax-ns#"
   xmlns:svg="http://www.w3.org/2000/svg"
   xmlns="http://www.w3.org/2000/svg"
   viewBox="0 0 389.76251 177.16251"
   height="177.16251"
   width="389.76251"
   xml:space="preserve"
   version="1.1"
   id="svg2"><metadata
     id="metadata8"><rdf:RDF><cc:Work
         rdf:about=""><dc:format>image/svg+xml</dc:format><dc:type
           rdf:resource="http://purl.org/dc/dcmitype/StillImage" /><dc:title></dc:title></cc:Work></rdf:RDF></metadata><defs
     id="defs6" /><g
     transform="matrix(1.25,0,0,-1.25,0,177.1625)"
     id="g10"><g
       transform="scale(0.1,0.1)"
       id="g12"><path
         id="path14"
         style="fill:#ffffff;fill-opacity:1;fill-rule:nonzero;stroke:none"
         d="m 109.805,807.609 c -9.153,10.063 -21.348,14.637 -36.9027,14.637 l -39.9609,0 0,-158.004 39.9609,0 c 15.5547,0 27.7497,4.582 36.9027,14.645 11.289,12.504 11.59,35.992 11.59,65.883 0,29.894 -0.301,50.332 -11.59,62.839 z M 132.383,655.098 C 118.652,641.367 98.8281,634.66 76.25,634.66 l -76.25,0 0,217.176 76.25,0 c 22.5781,0 42.402,-6.715 56.133,-20.438 23.484,-23.488 21.953,-55.21 21.953,-86.628 0,-31.415 1.531,-66.188 -21.953,-89.672" /><path
         id="path16"
         style="fill:#ffffff;fill-opacity:1;fill-rule:nonzero;stroke:none"
         d="m 315.371,822.246 -48.808,0 0,-68.016 48.808,0 c 21.953,0 36.902,12.504 36.902,33.856 0,21.352 -14.949,34.16 -36.902,34.16 z m 38.125,-187.586 -45.754,91.508 -41.179,0 0,-91.508 -32.942,0 0,217.176 84.184,0 c 41.179,0 67.41,-26.539 67.41,-63.445 0,-31.114 -18.906,-50.938 -43.313,-57.649 l 50.024,-96.082 -38.43,0" /><path
         id="path18"
         style="fill:#ffffff;fill-opacity:1;fill-rule:nonzero;stroke:none"
         d="m 463.895,634.66 0,217.176 138.781,0 0,-29.59 -105.84,0 0,-63.441 90.281,0 0,-29.282 -90.281,0 0,-65.281 105.84,0 0,-29.582 -138.781,0" /><path
         id="path20"
         style="fill:#ffffff;fill-opacity:1;fill-rule:nonzero;stroke:none"
         d="m 735.957,632.832 c -32.637,0 -56.121,7.629 -76.863,28.668 l 21.961,21.66 c 15.859,-15.863 33.242,-20.742 55.515,-20.742 28.364,0 44.836,12.195 44.836,33.246 0,9.453 -2.746,17.383 -8.547,22.57 -5.488,5.184 -10.972,7.325 -23.789,9.153 l -25.625,3.66 c -17.683,2.441 -31.715,8.539 -41.172,17.387 -10.671,10.062 -15.855,23.789 -15.855,41.484 0,37.82 27.449,63.75 72.586,63.75 28.672,0 48.809,-7.324 67.414,-24.707 l -21.047,-20.742 c -13.418,12.808 -28.976,16.777 -47.273,16.777 -25.625,0 -39.66,-14.644 -39.66,-33.863 0,-7.93 2.441,-14.945 8.242,-20.125 5.488,-4.883 14.336,-8.547 24.394,-10.07 l 24.707,-3.661 c 20.137,-3.047 31.414,-7.929 40.567,-16.164 11.906,-10.371 17.695,-25.925 17.695,-44.535 0,-39.957 -32.637,-63.746 -78.086,-63.746" /><path
         id="path22"
         style="fill:#ffffff;fill-opacity:1;fill-rule:nonzero;stroke:none"
         d="m 998.563,807.609 c -9.149,10.063 -21.344,14.637 -36.903,14.637 l -39.961,0 0,-158.004 39.961,0 c 15.559,0 27.754,4.582 36.903,14.645 11.287,12.504 11.597,35.992 11.597,65.883 0,29.894 -0.31,50.332 -11.597,62.839 z M 1021.14,655.098 C 1007.41,641.367 987.59,634.66 965.012,634.66 l -76.25,0 0,217.176 76.25,0 c 22.578,0 42.398,-6.715 56.128,-20.438 23.49,-23.488 21.96,-55.21 21.96,-86.628 0,-31.415 1.53,-66.188 -21.96,-89.672" /><path
         id="path24"
         style="fill:#ffffff;fill-opacity:1;fill-rule:nonzero;stroke:none"
         d="m 1122.39,634.66 0,217.176 138.78,0 0,-29.59 -105.84,0 0,-63.441 90.29,0 0,-29.282 -90.29,0 0,-65.281 105.84,0 0,-29.582 -138.78,0" /><path
         id="path26"
         style="fill:#ffffff;fill-opacity:1;fill-rule:nonzero;stroke:none"
         d="m 1470.1,634.66 -100.35,152.817 0,-152.817 -32.94,0 0,217.176 30.19,0 100.35,-152.516 0,152.516 32.94,0 0,-217.176 -30.19,0" /><path
         id="path28"
         style="fill:#ffffff;fill-opacity:1;fill-rule:nonzero;stroke:none"
         d="m 359.902,282.832 c -34.773,0 -68.933,21.359 -68.933,79.309 0,57.949 34.16,79.004 68.933,79.004 21.348,0 36.297,-6.106 50.938,-21.661 l -21.348,-20.746 c -9.765,10.684 -17.39,14.653 -29.59,14.653 -11.894,0 -21.964,-4.879 -28.672,-13.731 -6.71,-8.539 -9.152,-19.519 -9.152,-37.519 0,-18 2.442,-29.282 9.152,-37.821 6.708,-8.851 16.778,-13.718 28.672,-13.718 12.2,0 19.825,3.957 29.59,14.628 l 21.348,-20.429 c -14.641,-15.563 -29.59,-21.969 -50.938,-21.969" /><path
         id="path30"
         style="fill:#ffffff;fill-opacity:1;fill-rule:nonzero;stroke:none"
         d="m 551.738,404.539 c -5.793,5.793 -13.718,8.852 -22.871,8.852 -9.148,0 -16.777,-3.059 -22.578,-8.852 -9.453,-9.449 -10.676,-25.617 -10.676,-42.398 0,-16.782 1.223,-32.95 10.676,-42.403 5.801,-5.789 13.43,-9.136 22.578,-9.136 9.153,0 17.078,3.347 22.871,9.136 9.461,9.453 10.684,25.621 10.684,42.403 0,16.781 -1.223,32.949 -10.684,42.398 z m 23.489,-103.41 c -10.059,-10.367 -25.317,-18.297 -46.36,-18.297 -21.047,0 -35.996,7.93 -46.062,18.297 -14.641,15.262 -18.301,34.781 -18.301,61.012 0,25.929 3.66,45.449 18.301,60.703 10.066,10.371 25.015,18.301 46.062,18.301 21.043,0 36.301,-7.93 46.36,-18.301 14.644,-15.254 18.308,-34.774 18.308,-60.703 0,-26.231 -3.664,-45.75 -18.308,-61.012" /><path
         id="path32"
         style="fill:#ffffff;fill-opacity:1;fill-rule:nonzero;stroke:none"
         d="m 760.359,284.66 0,94.262 c 0,24.098 -13.718,34.469 -31.101,34.469 -17.395,0 -32.031,-10.68 -32.031,-34.469 l 0,-94.262 -31.114,0 0,154.649 30.496,0 0,-15.547 c 10.688,11.582 25.625,17.383 41.184,17.383 15.859,0 28.977,-5.188 38.125,-14.036 11.895,-11.589 15.559,-26.23 15.559,-43.621 l 0,-98.828 -31.118,0" /><path
         id="path34"
         style="fill:#ffffff;fill-opacity:1;fill-rule:nonzero;stroke:none"
         d="m 930.859,282.832 c -34.773,0 -68.933,21.359 -68.933,79.309 0,57.949 34.16,79.004 68.933,79.004 21.348,0 36.297,-6.106 50.938,-21.661 l -21.348,-20.746 c -9.765,10.684 -17.39,14.653 -29.59,14.653 -11.894,0 -21.964,-4.879 -28.671,-13.731 -6.708,-8.539 -9.153,-19.519 -9.153,-37.519 0,-18 2.445,-29.282 9.153,-37.821 6.707,-8.851 16.777,-13.718 28.671,-13.718 12.2,0 19.825,3.957 29.59,14.628 l 21.348,-20.429 c -14.641,-15.563 -29.59,-21.969 -50.938,-21.969" /><path
         id="path36"
         style="fill:#ffffff;fill-opacity:1;fill-rule:nonzero;stroke:none"
         d="m 1130.94,395.691 c -4.89,11.59 -15.86,19.528 -30.51,19.528 -14.64,0 -25.93,-7.938 -30.8,-19.528 -3.06,-7.011 -3.66,-11.589 -3.97,-21.05 l 69.55,0 c -0.31,9.461 -1.23,14.039 -4.27,21.05 z m -65.28,-42.703 c 0,-26.527 14.03,-43.308 39.35,-43.308 17.38,0 26.53,4.879 37.52,15.859 l 19.82,-18.617 c -15.86,-15.863 -30.81,-24.09 -57.96,-24.09 -38.73,0 -69.54,20.438 -69.54,79.309 0,50.019 25.93,79.004 65.58,79.004 41.48,0 65.59,-30.504 65.59,-74.434 l 0,-13.723 -100.36,0" /><path
         id="path38"
         style="fill:#ffffff;fill-opacity:1;fill-rule:nonzero;stroke:none"
         d="m 1301.12,413.391 c -28.06,0 -32.33,-23.801 -32.33,-51.25 0,-27.45 4.27,-51.539 32.33,-51.539 28.06,0 32.02,24.089 32.02,51.539 0,27.449 -3.96,51.25 -32.02,51.25 z m 45.76,-116.84 c -8.55,-8.531 -21.97,-13.719 -37.52,-13.719 -16.48,0 -29.28,4.27 -40.57,17.688 l 0,-78.379 -31.11,0 0,217.168 30.49,0 0,-16.465 c 11.6,14.023 24.11,18.301 40.88,18.301 15.56,0 29.28,-5.188 37.83,-13.731 15.55,-15.555 17.38,-41.785 17.38,-65.273 0,-23.493 -1.83,-50.02 -17.38,-65.59" /><path
         id="path40"
         style="fill:#ffffff;fill-opacity:1;fill-rule:nonzero;stroke:none"
         d="m 1482.89,284.66 c -28.97,0 -42.39,20.738 -42.39,43.012 l 0,85.098 -17.7,0 0,23.793 17.7,0 0,46.984 31.11,0 0,-46.984 29.89,0 0,-23.793 -29.89,0 0,-83.579 c 0,-11.281 5.49,-17.992 17.08,-17.992 l 12.81,0 0,-26.539 -18.61,0" /><path
         id="path42"
         style="fill:#305887;fill-opacity:1;fill-rule:evenodd;stroke:none"
         d="m 2501.03,1403.1 -239.26,-239.24 694.78,0 -455.52,239.24" /><path
         id="path44"
         style="fill:#102e57;fill-opacity:1;fill-rule:evenodd;stroke:none"
         d="m 1983.13,1264.42 0,-338.338 491.28,491.228 -491.28,-152.89" /><path
         id="path46"
         style="fill:#a6d71c;fill-opacity:1;fill-rule:evenodd;stroke:none"
         d="m 1714.99,800.172 239.27,-239.234 0,694.702 -239.27,-455.468" /><path
         id="path48"
         style="fill:#80ce51;fill-opacity:1;fill-rule:evenodd;stroke:none"
         d="m 1853.68,282.32 338.38,0 -491.29,491.231 152.91,-491.231" /><path
         id="path50"
         style="fill:#33b887;fill-opacity:1;fill-rule:evenodd;stroke:none"
         d="m 2318.21,14.1602 239.28,239.2378 -694.78,0 455.5,-239.2378" /><path
         id="path52"
         style="fill:#00aaaf;fill-opacity:1;fill-rule:evenodd;stroke:none"
         d="m 2835.87,152.891 0,338.359 L 2344.59,0 2835.87,152.891" /><path
         id="path54"
         style="fill:#80d5ed;fill-opacity:1;fill-rule:evenodd;stroke:none"
         d="m 3104.01,617.129 -239.26,239.242 0,-694.711 239.26,455.469" /><path
         id="path56"
         style="fill:#5291b7;fill-opacity:1;fill-rule:evenodd;stroke:none"
         d="m 2965.16,1135.19 -338.36,0 491.29,-491.225 -152.93,491.225" /></g></g></svg>