[
  {
    "$schema": "http://rodare.hzdr.de/schemas/funders/funder-v1.0.0.json",
    "acronyms": [
      "NHMRC"
    ],
    "country": "AU",
    "doi": "10.13039/501100000925",
    "identifiers": {
      "oaf": "nhmrc_______::NHMRC"
    },
    "name": "National Health and Medical Research Council",
    "parent": {
      "$ref": "http://dx.doi.org/10.13039/501100003921"
    },
    "remote_created": "2011-07-12T19:54:57.000000",
    "remote_modified": "2015-01-05T10:12:10.000000",
    "subtype": "federal/national government",
    "type": "gov"
  },
  {
    "$schema": "http://rodare.hzdr.de/schemas/funders/funder-v1.0.0.json",
    "acronyms": [
      "EC"
    ],
    "country": "BE",
    "doi": "10.13039/501100000780",
    "identifiers": {
      "oaf": "ec__________::EC"
    },
    "name": "European Commission",
    "parent": {},
    "remote_created": "2011-06-08T16:00:03.000000",
    "remote_modified": "2015-10-28T13:27:02.000000",
    "subtype": "federal",
    "type": "gov"
  },
  {
    "$schema": "http://rodare.hzdr.de/schemas/funders/funder-v1.0.0.json",
    "acronyms": [
      "ARC"
    ],
    "country": "AU",
    "doi": "10.13039/501100000923",
    "identifiers": {
      "oaf": "arc_________::ARC"
    },
    "name": "Australian Research Council",
    "parent": {
      "$ref": "http://dx.doi.org/10.13039/501100000934"
    },
    "remote_created": "2011-07-11T10:52:15.000000",
    "remote_modified": "2015-06-12T08:24:28.000000",
    "subtype": "federal/national government",
    "type": "gov"
  },
  {
    "$schema": "http://rodare.hzdr.de/schemas/funders/funder-v1.0.0.json",
    "acronyms": [
      "FCT"
    ],
    "country": "PT",
    "doi": "10.13039/501100001871",
    "identifiers": {
      "oaf": "fct_________::FCT"
    },
    "name": "Funda\u00e7\u00e3o para a Ci\u00eancia e a Tecnologia",
    "parent": {
      "$ref": "http://dx.doi.org/10.13039/501100003381"
    },
    "remote_created": "2011-10-11T09:06:59.000000",
    "remote_modified": "2015-07-08T10:09:16.000000",
    "subtype": "federal/national government",
    "type": "gov"
  },
  {
    "$schema": "http://rodare.hzdr.de/schemas/funders/funder-v1.0.0.json",
    "acronyms": [],
    "country": "GB",
    "doi": "10.13039/100004440",
    "identifiers": {
      "oaf": "wt__________::WT"
    },
    "name": "Wellcome Trust",
    "parent": {},
    "remote_created": "2009-07-06T18:53:11.000000",
    "remote_modified": "2015-06-22T15:39:16.000000",
    "subtype": "international",
    "type": "pri"
  },
  {
    "$schema": "http://rodare.hzdr.de/schemas/funders/funder-v1.0.0.json",
    "acronyms": [
      "NSF"
    ],
    "country": "US",
    "doi": "10.13039/100000001",
    "identifiers": {
      "oaf": "nsf_________::NSF"
    },
    "name": "National Science Foundation",
    "parent": {},
    "remote_created": "2009-07-06T18:53:11.000000",
    "remote_modified": "2015-06-12T09:13:48.000000",
    "subtype": "federal/national government",
    "type": "gov"
  },
  {
    "$schema": "http://rodare.hzdr.de/schemas/funders/funder-v1.0.0.json",
    "acronyms": [],
    "country": "RS",
    "doi": "10.13039/501100004564",
    "identifiers": {
      "oaf": null
    },
    "name": "Ministarstvo Prosvete, Nauke i Tehnolo\u0161kog Razvoja",
    "parent": {},
    "remote_created": "2014-06-23T15:49:44.000000",
    "remote_modified": "2015-02-11T16:18:03.000000",
    "subtype": "federal/national government",
    "type": "gov"
  },
  {
    "$schema": "http://rodare.hzdr.de/schemas/funders/funder-v1.0.0.json",
    "acronyms": [
      "NWO"
    ],
    "country": "NL",
    "doi": "10.13039/501100003246",
    "identifiers": {
      "oaf": null
    },
    "name": "Nederlandse Organisatie voor Wetenschappelijk Onderzoek",
    "parent": {},
    "remote_created": "2014-02-04T09:49:51.000000",
    "remote_modified": "2015-06-12T08:43:34.000000",
    "subtype": "federal/national government",
    "type": "gov"
  },
  {
    "$schema": "http://rodare.hzdr.de/schemas/funders/funder-v1.0.0.json",
    "acronyms": [
      "MZOS"
    ],
    "country": "HR",
    "doi": "10.13039/501100006588",
    "identifiers": {
      "oaf": null
    },
    "name": "Ministarstvo Znanosti, Obrazovanja i Sporta",
    "parent": {},
    "remote_created": "2015-04-06T18:00:51.000000",
    "remote_modified": "2015-10-28T13:41:07.000000",
    "subtype": "federal/national government",
    "type": "gov"
  },
  {
    "$schema": "http://rodare.hzdr.de/schemas/funders/funder-v1.0.0.json",
    "acronyms": [],
    "country": "PT",
    "doi": "10.13039/501100003381",
    "identifiers": {
      "oaf": null
    },
    "name": "Minist\u00e9rio da Educa\u00e7\u00e3o e Ci\u00eancia",
    "parent": {},
    "remote_created": "2014-03-06T18:21:41.000000",
    "remote_modified": "2015-10-28T13:26:53.000000",
    "subtype": "government non-federal",
    "type": "gov"
  },
  {
    "$schema": "http://rodare.hzdr.de/schemas/funders/funder-v1.0.0.json",
    "acronyms": [],
    "country": "AU",
    "doi": "10.13039/501100000934",
    "identifiers": {
      "oaf": null
    },
    "name": "Department of Industry, Innovation, Science, Research and Tertiary Education, Australian Government",
    "parent": {},
    "remote_created": "2011-07-11T10:33:24.000000",
    "remote_modified": "2015-06-12T08:24:24.000000",
    "subtype": "federal",
    "type": "gov"
  },
  {
    "$schema": "http://rodare.hzdr.de/schemas/funders/funder-v1.0.0.json",
    "acronyms": [],
    "country": "AU",
    "doi": "10.13039/501100003921",
    "identifiers": {
      "oaf": null
    },
    "name": "Department of Health, Australian Government",
    "parent": {},
    "remote_created": "2014-04-24T13:24:55.000000",
    "remote_modified": "2015-10-28T13:34:53.000000",
    "subtype": "federal/national government",
    "type": "gov"
  },
  {
    "$schema": "http://zenodo.org/schemas/funders/funder-v1.0.0.json",
    "acronyms": [
      "SNF"
    ],
    "country": "CH",
    "doi": "10.13039/501100001711",
    "identifiers": {
      "oaf": null
    },
    "name": "Schweizerischer Nationalfonds zur F\u00f6rderung der Wissenschaftlichen Forschung",
    "parent": {},
    "remote_created": "2011-09-23T12:38:54.000000",
    "remote_modified": "2015-04-08T12:39:48.000000",
    "subtype": "foundation",
    "type": "pri"
  },
  {
    "$schema": "http://zenodo.org/schemas/funders/funder-v1.0.0.json",
    "acronyms": [
      "NIH"
    ],
    "country": "US",
    "doi": "10.13039/100000002",
    "identifiers": {
      "oaf": null
    },
    "name": "National Institutes of Health",
    "parent": {
      "$ref": "http://dx.doi.org/10.13039/100000016"
    },
    "remote_created": "2009-07-06T18:53:11.000000",
    "remote_modified": "2015-09-02T11:38:17.000000",
    "subtype": "federal/national government",
    "type": "gov"
  },
  {
    "$schema": "http://zenodo.org/schemas/funders/funder-v1.0.0.json",
    "acronyms": [
      "HRZZ"
    ],
    "country": "HR",
    "doi": "10.13039/501100004488",
    "identifiers": {
      "oaf": null
    },
    "name": "Hrvatska Zaklada za Znanost",
    "parent": {},
    "remote_created": "2014-06-03T15:25:29.000000",
    "remote_modified": null,
    "subtype": "government non-federal",
    "type": "gov"
  },
  {
    "$schema": "http://zenodo.org/schemas/funders/funder-v1.0.0.json",
    "acronyms": [
      "SFI"
    ],
    "country": "IE",
    "doi": "10.13039/501100001602",
    "identifiers": {
      "oaf": null
    },
    "name": "Science Foundation Ireland",
    "parent": {},
    "remote_created": "2011-09-02T08:46:06.000000",
    "remote_modified": "2015-01-05T09:59:07.000000",
    "subtype": "foundation",
    "type": "pri"
  },
  {
    "$schema": "http://zenodo.org/schemas/funders/funder-v1.0.0.json",
    "acronyms": [
      "FWF"
    ],
    "country": "AT",
    "doi": "10.13039/501100002428",
    "identifiers": {
      "oaf": null
    },
    "name": "Austrian Science Fund",
    "parent": {},
    "remote_created": "2013-11-23T10:48:52.000000",
    "remote_modified": "2015-01-05T10:18:22.000000",
    "subtype": "foundation",
    "type": "pri"
  },
  {
    "$schema": "http://zenodo.org/schemas/funders/funder-v1.0.0.json",
    "acronyms": [
      "HHS"
    ],
    "country": "US",
    "doi": "10.13039/100000016",
    "identifiers": {
      "oaf": null
    },
    "name": "U.S. Department of Health and Human Services",
    "parent": {},
    "remote_created": "2009-07-06T18:53:11.000000",
    "remote_modified": "2015-06-12T09:14:21.000000",
    "subtype": "federal/national government",
    "type": "gov"
  }
]
